<svg xmlns="http://www.w3.org/2000/svg" viewBox="0 0 96 78" width="96" height="78">
	<style>
		tspan { white-space:pre }
		.shp0 { fill: #ffffff } 
	</style>
	<g id="4 option">
		<g id="2">
			<path id="Forma 1" class="shp0" d="M76.29 2L64.05 20.42L51.4 2L76.29 2ZM62.11 24.63L34.94 24.63L48.52 76.03L62.11 24.63ZM35.85 21.61L61.2 21.61L48.52 3.16L35.85 21.61ZM33 20.42L45.65 2L20.75 2L33 20.42ZM45.65 77L31.81 24.63L2 24.63L45.65 77ZM2.04 21.61L30.16 21.61L17.91 3.19L2.04 21.61ZM79.12 3.22L66.89 21.61L94.96 21.61L79.12 3.22ZM65.24 24.63L51.4 76.99L95 24.63L65.24 24.63Z" />
		</g>
	</g>
</svg>