<svg xmlns="http://www.w3.org/2000/svg" viewBox="0 0 18 19" width="18" height="19">
	<style>
		tspan { white-space:pre }
		.shp0 { fill: #ffffff } 
	</style>
	<g id="Work">
		<g id="Load More">
			<path id="Forma 1" class="shp0" d="M16.5 8L11 8L11 2.5C11 2.22 10.78 2 10.5 2L7.5 2C7.22 2 7 2.22 7 2.5L7 8L1.5 8C1.22 8 1 8.22 1 8.5L1 11.5C1 11.77 1.22 12 1.5 12L7 12L7 17.5C7 17.77 7.22 18 7.5 18L10.5 18C10.78 18 11 17.77 11 17.5L11 12L16.5 12C16.78 12 17 11.77 17 11.5L17 8.5C17 8.22 16.78 8 16.5 8Z" />
		</g>
	</g>
</svg>